digraph "Component"
{
  edge [fontname="Helvetica",fontsize="10",labelfontname="Helvetica",labelfontsize="10"];
  node [fontname="Helvetica",fontsize="10",shape=record];
  Node1 [label="Component",height=0.2,width=0.4,color="black", fillcolor="grey75", style="filled", fontcolor="black"];
  Node1 -> Node2 [dir="back",color="midnightblue",fontsize="10",style="solid",fontname="Helvetica"];
  Node2 [label="Camera",height=0.2,width=0.4,color="black", fillcolor="white", style="filled",URL="$class_camera.html",tooltip="A device that enables the user to view the scene. "];
  Node1 -> Node3 [dir="back",color="midnightblue",fontsize="10",style="solid",fontname="Helvetica"];
  Node3 [label="CubeRenderer",height=0.2,width=0.4,color="black", fillcolor="white", style="filled",URL="$class_cube_renderer.html",tooltip="A component that renders a GLEW Box. "];
  Node1 -> Node4 [dir="back",color="midnightblue",fontsize="10",style="solid",fontname="Helvetica"];
  Node4 [label="ModelRenderer",height=0.2,width=0.4,color="black", fillcolor="white", style="filled",URL="$class_model_renderer.html",tooltip="A component that renders model files. "];
  Node1 -> Node5 [dir="back",color="midnightblue",fontsize="10",style="solid",fontname="Helvetica"];
  Node5 [label="TextRenderer",height=0.2,width=0.4,color="black", fillcolor="white", style="filled",URL="$class_text_renderer.html",tooltip="A component that renders Texts. "];
  Node1 -> Node6 [dir="back",color="midnightblue",fontsize="10",style="solid",fontname="Helvetica"];
  Node6 [label="Transform",height=0.2,width=0.4,color="black", fillcolor="white", style="filled",URL="$class_transform.html",tooltip="A component that contains the Position, Rotation, and Scale of an object. "];
}
