digraph "SceneManager"
{
  edge [fontname="Helvetica",fontsize="10",labelfontname="Helvetica",labelfontsize="10"];
  node [fontname="Helvetica",fontsize="10",shape=record];
  Node1 [label="SceneManager",height=0.2,width=0.4,color="black", fillcolor="grey75", style="filled", fontcolor="black"];
  Node2 -> Node1 [dir="back",color="midnightblue",fontsize="10",style="solid",fontname="Helvetica"];
  Node2 [label="GameObject",height=0.2,width=0.4,color="black", fillcolor="white", style="filled",URL="$class_game_object.html",tooltip="Base class for all entities in the Engine. "];
}
