digraph "Camera"
{
  edge [fontname="Helvetica",fontsize="10",labelfontname="Helvetica",labelfontsize="10"];
  node [fontname="Helvetica",fontsize="10",shape=record];
  Node1 [label="Camera",height=0.2,width=0.4,color="black", fillcolor="grey75", style="filled", fontcolor="black"];
  Node2 -> Node1 [dir="back",color="midnightblue",fontsize="10",style="solid"];
  Node2 [label="Component",height=0.2,width=0.4,color="black", fillcolor="white", style="filled",URL="$class_component.html",tooltip="Base class for everything attached to GameObjects. "];
}
